{
    "message": "Broadcast event list fetched successfully",
    "location": "/broadcast-content/api/mocks/events-mock",
    "status": "SUCCESS",
    "data": {
        "content": [
            {
                "id": "d1984d76-c733-41fe-b3f8-bfca322687e6",
                "tenantName": "TenantName0",
                "tenantId": "TenantId0",
                "countryCode": "COL",
                "assetId": "Testing-asset-0",
                "contentId": "Testing-content-0-v1",
                "eventId": "123450",
                "eventName": "EventName0",
                "categoryName": "Category0",
                "channelId": "ChannelId0",
                "channelName": "ChannelName0",
                "startTime": "2025-01-02 12:40:00",
                "endTime": "2025-01-03 13:10:00",
                "providerEventList": [
                    {
                        "providerId": "providerId",
                        "providerType": "providerType",
                        "providerEventId": "providerEventId",
                        "providerIconUrl": "providerIconUrl"
                    }
                ],
                "isLive": true
            },
            {
                "id": "f87f1c36-8ef0-4eae-9919-560d4e663c9b",
                "tenantName": "TenantName1",
                "tenantId": "TenantId1",
                "countryCode": "COL",
                "assetId": "Testing-asset-1",
                "contentId": "Testing-content-1-v1",
                "eventId": "123451",
                "eventName": "EventName1",
                "categoryName": "Category1",
                "channelId": "ChannelId1",
                "channelName": "ChannelName1",
                "startTime": "2025-01-02 12:40:00",
                "endTime": "2025-01-03 13:10:00",
                "providerEventList": [
                    {
                        "providerId": "providerId",
                        "providerType": "providerType",
                        "providerEventId": "providerEventId",
                        "providerIconUrl": "providerIconUrl"
                    }
                ],
                "isLive": true
            },
            {
                "id": "429bf594-e8ad-464c-a018-f47ee3ebc60d",
                "tenantName": "TenantName2",
                "tenantId": "TenantId2",
                "countryCode": "COL",
                "assetId": "Testing-asset-2",
                "contentId": "Testing-content-2-v1",
                "eventId": "123452",
                "eventName": "EventName2",
                "categoryName": "Category2",
                "channelId": "ChannelId2",
                "channelName": "ChannelName2",
                "startTime": "2025-01-02 12:40:00",
                "endTime": "2025-01-03 13:10:00",
                "providerEventList": [
                    {
                        "providerId": "providerId",
                        "providerType": "providerType",
                        "providerEventId": "providerEventId",
                        "providerIconUrl": "providerIconUrl"
                    }
                ],
                "isLive": true
            },
            {
                "id": "73047203-2899-4f2d-b349-43298accbcc6",
                "tenantName": "TenantName3",
                "tenantId": "TenantId3",
                "countryCode": "COL",
                "assetId": "Testing-asset-3",
                "contentId": "Testing-content-3-v1",
                "eventId": "123453",
                "eventName": "EventName3",
                "categoryName": "Category3",
                "channelId": "ChannelId3",
                "channelName": "ChannelName3",
                "startTime": "2025-01-02 12:40:00",
                "endTime": "2025-01-03 13:10:00",
                "providerEventList": [
                    {
                        "providerId": "providerId",
                        "providerType": "providerType",
                        "providerEventId": "providerEventId",
                        "providerIconUrl": "providerIconUrl"
                    }
                ],
                "isLive": true
            },
            {
                "id": "dd2dca4d-d53d-421b-8e37-c169864be641",
                "tenantName": "TenantName4",
                "tenantId": "TenantId4",
                "countryCode": "COL",
                "assetId": "Testing-asset-4",
                "contentId": "Testing-content-4-v1",
                "eventId": "123454",
                "eventName": "EventName4",
                "categoryName": "Category4",
                "channelId": "ChannelId4",
                "channelName": "ChannelName4",
                "startTime": "2025-01-02 12:40:00",
                "endTime": "2025-01-03 13:10:00",
                "providerEventList": [
                    {
                        "providerId": "providerId",
                        "providerType": "providerType",
                        "providerEventId": "providerEventId",
                        "providerIconUrl": "providerIconUrl"
                    }
                ],
                "isLive": true
            },
            {
                "id": "ee935b1f-110c-44b7-94b8-6863a15845eb",
                "tenantName": "TenantName5",
                "tenantId": "TenantId5",
                "countryCode": "COL",
                "assetId": "Testing-asset-5",
                "contentId": "Testing-content-5-v1",
                "eventId": "123455",
                "eventName": "EventName5",
                "categoryName": "Category5",
                "channelId": "ChannelId5",
                "channelName": "ChannelName5",
                "startTime": "2025-01-02 12:40:00",
                "endTime": "2025-01-03 13:10:00",
                "providerEventList": [
                    {
                        "providerId": "providerId",
                        "providerType": "providerType",
                        "providerEventId": "providerEventId",
                        "providerIconUrl": "providerIconUrl"
                    }
                ],
                "isLive": true
            },
            {
                "id": "990d2178-bda2-4d2d-806e-e87aef2c3b38",
                "tenantName": "TenantName6",
                "tenantId": "TenantId6",
                "countryCode": "COL",
                "assetId": "Testing-asset-6",
                "contentId": "Testing-content-6-v1",
                "eventId": "123456",
                "eventName": "EventName6",
                "categoryName": "Category6",
                "channelId": "ChannelId6",
                "channelName": "ChannelName6",
                "startTime": "2025-01-02 12:40:00",
                "endTime": "2025-01-03 13:10:00",
                "providerEventList": [
                    {
                        "providerId": "providerId",
                        "providerType": "providerType",
                        "providerEventId": "providerEventId",
                        "providerIconUrl": "providerIconUrl"
                    }
                ],
                "isLive": true
            },
            {
                "id": "016d8a6c-38a4-4313-aa96-dad81665ad7c",
                "tenantName": "TenantName7",
                "tenantId": "TenantId7",
                "countryCode": "COL",
                "assetId": "Testing-asset-7",
                "contentId": "Testing-content-7-v1",
                "eventId": "123457",
                "eventName": "EventName7",
                "categoryName": "Category7",
                "channelId": "ChannelId7",
                "channelName": "ChannelName7",
                "startTime": "2025-01-02 12:40:00",
                "endTime": "2025-01-03 13:10:00",
                "providerEventList": [
                    {
                        "providerId": "providerId",
                        "providerType": "providerType",
                        "providerEventId": "providerEventId",
                        "providerIconUrl": "providerIconUrl"
                    }
                ],
                "isLive": true
            },
            {
                "id": "948819fd-14de-4705-a903-c9cc54031fe5",
                "tenantName": "TenantName8",
                "tenantId": "TenantId8",
                "countryCode": "COL",
                "assetId": "Testing-asset-8",
                "contentId": "Testing-content-8-v1",
                "eventId": "123458",
                "eventName": "EventName8",
                "categoryName": "Category8",
                "channelId": "ChannelId8",
                "channelName": "ChannelName8",
                "startTime": "2025-01-02 12:40:00",
                "endTime": "2025-01-03 13:10:00",
                "providerEventList": [
                    {
                        "providerId": "providerId",
                        "providerType": "providerType",
                        "providerEventId": "providerEventId",
                        "providerIconUrl": "providerIconUrl"
                    }
                ],
                "isLive": true
            },
            {
                "id": "7e06e33a-fe65-477f-b2c3-a0a47a6dfb3c",
                "tenantName": "TenantName9",
                "tenantId": "TenantId9",
                "countryCode": "COL",
                "assetId": "Testing-asset-9",
                "contentId": "Testing-content-9-v1",
                "eventId": "123459",
                "eventName": "EventName9",
                "categoryName": "Category9",
                "channelId": "ChannelId9",
                "channelName": "ChannelName9",
                "startTime": "2025-01-02 12:40:00",
                "endTime": "2025-01-03 13:10:00",
                "providerEventList": [
                    {
                        "providerId": "providerId",
                        "providerType": "providerType",
                        "providerEventId": "providerEventId",
                        "providerIconUrl": "providerIconUrl"
                    }
                ],
                "isLive": true
            },
            {
                "id": "f78b6abc-d870-4442-9bfc-347c734b5cbd",
                "tenantName": "TenantName10",
                "tenantId": "TenantId10",
                "countryCode": "COL",
                "assetId": "Testing-asset-10",
                "contentId": "Testing-content-10-v1",
                "eventId": "1234510",
                "eventName": "EventName10",
                "categoryName": "Category10",
                "channelId": "ChannelId10",
                "channelName": "ChannelName10",
                "startTime": "2025-01-02 12:40:00",
                "endTime": "2025-01-03 13:10:00",
                "providerEventList": [
                    {
                        "providerId": "providerId",
                        "providerType": "providerType",
                        "providerEventId": "providerEventId",
                        "providerIconUrl": "providerIconUrl"
                    }
                ],
                "isLive": true
            },
            {
                "id": "94529d79-5856-4cf1-96e9-db995a629ddf",
                "tenantName": "TenantName11",
                "tenantId": "TenantId11",
                "countryCode": "COL",
                "assetId": "Testing-asset-11",
                "contentId": "Testing-content-11-v1",
                "eventId": "1234511",
                "eventName": "EventName11",
                "categoryName": "Category11",
                "channelId": "ChannelId11",
                "channelName": "ChannelName11",
                "startTime": "2025-01-02 12:40:00",
                "endTime": "2025-01-03 13:10:00",
                "providerEventList": [
                    {
                        "providerId": "providerId",
                        "providerType": "providerType",
                        "providerEventId": "providerEventId",
                        "providerIconUrl": "providerIconUrl"
                    }
                ],
                "isLive": true
            },
            {
                "id": "2ee4d4f4-30f8-468f-8375-8cc0f8a55169",
                "tenantName": "TenantName12",
                "tenantId": "TenantId12",
                "countryCode": "COL",
                "assetId": "Testing-asset-12",
                "contentId": "Testing-content-12-v1",
                "eventId": "1234512",
                "eventName": "EventName12",
                "categoryName": "Category12",
                "channelId": "ChannelId12",
                "channelName": "ChannelName12",
                "startTime": "2025-01-02 12:40:00",
                "endTime": "2025-01-03 13:10:00",
                "providerEventList": [
                    {
                        "providerId": "providerId",
                        "providerType": "providerType",
                        "providerEventId": "providerEventId",
                        "providerIconUrl": "providerIconUrl"
                    }
                ],
                "isLive": true
            },
            {
                "id": "78f93bff-c361-459d-a863-15970bd146ea",
                "tenantName": "TenantName13",
                "tenantId": "TenantId13",
                "countryCode": "COL",
                "assetId": "Testing-asset-13",
                "contentId": "Testing-content-13-v1",
                "eventId": "1234513",
                "eventName": "EventName13",
                "categoryName": "Category13",
                "channelId": "ChannelId13",
                "channelName": "ChannelName13",
                "startTime": "2025-01-02 12:40:00",
                "endTime": "2025-01-03 13:10:00",
                "providerEventList": [
                    {
                        "providerId": "providerId",
                        "providerType": "providerType",
                        "providerEventId": "providerEventId",
                        "providerIconUrl": "providerIconUrl"
                    }
                ],
                "isLive": true
            },
            {
                "id": "6f9abf1c-f715-4c50-b562-45ff91edc3dc",
                "tenantName": "TenantName14",
                "tenantId": "TenantId14",
                "countryCode": "COL",
                "assetId": "Testing-asset-14",
                "contentId": "Testing-content-14-v1",
                "eventId": "1234514",
                "eventName": "EventName14",
                "categoryName": "Category14",
                "channelId": "ChannelId14",
                "channelName": "ChannelName14",
                "startTime": "2025-01-02 12:40:00",
                "endTime": "2025-01-03 13:10:00",
                "providerEventList": [
                    {
                        "providerId": "providerId",
                        "providerType": "providerType",
                        "providerEventId": "providerEventId",
                        "providerIconUrl": "providerIconUrl"
                    }
                ],
                "isLive": true
            },
            {
                "id": "172399ef-a88d-4adc-ab6f-020072ac6ce5",
                "tenantName": "TenantName15",
                "tenantId": "TenantId15",
                "countryCode": "COL",
                "assetId": "Testing-asset-15",
                "contentId": "Testing-content-15-v1",
                "eventId": "1234515",
                "eventName": "EventName15",
                "categoryName": "Category15",
                "channelId": "ChannelId15",
                "channelName": "ChannelName15",
                "startTime": "2025-01-02 12:40:00",
                "endTime": "2025-01-03 13:10:00",
                "providerEventList": [
                    {
                        "providerId": "providerId",
                        "providerType": "providerType",
                        "providerEventId": "providerEventId",
                        "providerIconUrl": "providerIconUrl"
                    }
                ],
                "isLive": true
            },
            {
                "id": "573dbdf8-ae7e-4e2d-b4d2-3d4c94ba84da",
                "tenantName": "TenantName16",
                "tenantId": "TenantId16",
                "countryCode": "COL",
                "assetId": "Testing-asset-16",
                "contentId": "Testing-content-16-v1",
                "eventId": "1234516",
                "eventName": "EventName16",
                "categoryName": "Category16",
                "channelId": "ChannelId16",
                "channelName": "ChannelName16",
                "startTime": "2025-01-02 12:40:00",
                "endTime": "2025-01-03 13:10:00",
                "providerEventList": [
                    {
                        "providerId": "providerId",
                        "providerType": "providerType",
                        "providerEventId": "providerEventId",
                        "providerIconUrl": "providerIconUrl"
                    }
                ],
                "isLive": true
            },
            {
                "id": "59802648-24b0-401e-966a-90bc702a82a4",
                "tenantName": "TenantName17",
                "tenantId": "TenantId17",
                "countryCode": "COL",
                "assetId": "Testing-asset-17",
                "contentId": "Testing-content-17-v1",
                "eventId": "1234517",
                "eventName": "EventName17",
                "categoryName": "Category17",
                "channelId": "ChannelId17",
                "channelName": "ChannelName17",
                "startTime": "2025-01-02 12:40:00",
                "endTime": "2025-01-03 13:10:00",
                "providerEventList": [
                    {
                        "providerId": "providerId",
                        "providerType": "providerType",
                        "providerEventId": "providerEventId",
                        "providerIconUrl": "providerIconUrl"
                    }
                ],
                "isLive": true
            },
            {
                "id": "b4be221a-11e6-42cf-8227-f9d0f71a575f",
                "tenantName": "TenantName18",
                "tenantId": "TenantId18",
                "countryCode": "COL",
                "assetId": "Testing-asset-18",
                "contentId": "Testing-content-18-v1",
                "eventId": "1234518",
                "eventName": "EventName18",
                "categoryName": "Category18",
                "channelId": "ChannelId18",
                "channelName": "ChannelName18",
                "startTime": "2025-01-02 12:40:00",
                "endTime": "2025-01-03 13:10:00",
                "providerEventList": [
                    {
                        "providerId": "providerId",
                        "providerType": "providerType",
                        "providerEventId": "providerEventId",
                        "providerIconUrl": "providerIconUrl"
                    }
                ],
                "isLive": true
            },
            {
                "id": "8ace2c9c-ec2b-47a2-b6a6-f9b3eb1e3b52",
                "tenantName": "TenantName19",
                "tenantId": "TenantId19",
                "countryCode": "COL",
                "assetId": "Testing-asset-19",
                "contentId": "Testing-content-19-v1",
                "eventId": "1234519",
                "eventName": "EventName19",
                "categoryName": "Category19",
                "channelId": "ChannelId19",
                "channelName": "ChannelName19",
                "startTime": "2025-01-02 12:40:00",
                "endTime": "2025-01-03 13:10:00",
                "providerEventList": [
                    {
                        "providerId": "providerId",
                        "providerType": "providerType",
                        "providerEventId": "providerEventId",
                        "providerIconUrl": "providerIconUrl"
                    }
                ],
                "isLive": true
            }
        ],
        "pageable": {
            "pageNumber": 0,
            "pageSize": 20,
            "sort": {
                "empty": true,
                "unsorted": true,
                "sorted": false
            },
            "offset": 0,
            "unpaged": false,
            "paged": true
        },
        "last": false,
        "totalPages": 2,
        "totalElements": 30,
        "first": true,
        "size": 20,
        "number": 0,
        "sort": {
            "empty": true,
            "unsorted": true,
            "sorted": false
        },
        "numberOfElements": 20,
        "empty": false
    },
    "description": null,
    "error": null
}
